{"failedCount":1,"prefixedPath":"src\/test\/java\/users\/get\/users-get.feature","packageQualifiedName":"src.test.java.users.get.users-get","loopIndex":-1,"relativePath":"src\/test\/java\/users\/get\/users-get.feature","scenarioResults":[{"sectionIndex":1,"stepResults":[{"result":{"nanos":78450863,"millis":78.450863,"status":"passed"},"step":{"line":9,"prefix":"Given","index":0,"text":"url \"https:\/\/reqres.in\" + \"api\/users?page=2\""}},{"result":{"nanos":202716832,"errorMessage":"http call failed after 195 milliseconds for url: https:\/\/reqres.inapi\/users?page=2\nsrc\/test\/java\/users\/get\/users-get.feature:10","millis":202.716832,"status":"failed"},"step":{"line":10,"prefix":"When","index":1,"text":"method get"},"stepLog":"17:24:22.360 request:\n1 > GET https:\/\/reqres.inapi\/users?page=2\n1 > Host: reqres.inapi\n1 > Connection: Keep-Alive\n1 > User-Agent: Apache-HttpClient\/4.5.13 (Java\/1.8.0_372)\n1 > Accept-Encoding: gzip,deflate\n\n\n17:24:22.375 java.net.UnknownHostException: reqres.inapi: nodename nor servname provided, or not known, http call failed after 195 milliseconds for url: https:\/\/reqres.inapi\/users?page=2\n17:24:22.375 src\/test\/java\/users\/get\/users-get.feature:10\nWhen method get\nhttp call failed after 195 milliseconds for url: https:\/\/reqres.inapi\/users?page=2\nsrc\/test\/java\/users\/get\/users-get.feature:10\n"},{"result":{"nanos":0,"millis":0.0,"status":"skipped"},"step":{"line":11,"prefix":"Then","index":2,"text":"status 200"}},{"result":{"nanos":0,"millis":0.0,"status":"skipped"},"step":{"line":12,"prefix":"And","index":3,"text":"match $ == {\"page\":2,\"per_page\":6,\"total\":12,\"total_pages\":2,\"data\":[{\"id\":7,\"email\":\"michael.lawson@reqres.in\",\"first_name\":\"Michael\",\"last_name\":\"Lawson\",\"avatar\":\"https:\/\/reqres.in\/img\/faces\/7-image.jpg\"},{\"id\":8,\"email\":\"lindsay.ferguson@reqres.in\",\"first_name\":\"Lindsay\",\"last_name\":\"Ferguson\",\"avatar\":\"https:\/\/reqres.in\/img\/faces\/8-image.jpg\"},{\"id\":9,\"email\":\"tobias.funke@reqres.in\",\"first_name\":\"Tobias\",\"last_name\":\"Funke\",\"avatar\":\"https:\/\/reqres.in\/img\/faces\/9-image.jpg\"},{\"id\":10,\"email\":\"byron.fields@reqres.in\",\"first_name\":\"Byron\",\"last_name\":\"Fields\",\"avatar\":\"https:\/\/reqres.in\/img\/faces\/10-image.jpg\"},{\"id\":11,\"email\":\"george.edwards@reqres.in\",\"first_name\":\"George\",\"last_name\":\"Edwards\",\"avatar\":\"https:\/\/reqres.in\/img\/faces\/11-image.jpg\"},{\"id\":12,\"email\":\"rachel.howell@reqres.in\",\"first_name\":\"Rachel\",\"last_name\":\"Howell\",\"avatar\":\"https:\/\/reqres.in\/img\/faces\/12-image.jpg\"}],\"support\":{\"url\":\"https:\/\/reqres.in\/#support-heading\",\"text\":\"To keep ReqRes free, contributions towards server costs are appreciated!\"}}"}}],"line":8,"description":"","durationMillis":281.167695,"failed":true,"error":"http call failed after 195 milliseconds for url: https:\/\/reqres.inapi\/users?page=2\nsrc\/test\/java\/users\/get\/users-get.feature:10","executorName":"main","name":"Get a users of users","startTime":1707949462080,"refId":"[2:8]","endTime":1707949462375,"exampleIndex":-1}],"callDepth":0,"name":"Get users on regres","description":"","resultDate":"2024-02-14 05:24:22 PM","durationMillis":281.167695,"passedCount":0}