{"failedCount":1,"prefixedPath":"src\/test\/java\/users\/get\/users-get.feature","packageQualifiedName":"src.test.java.users.get.users-get","loopIndex":-1,"relativePath":"src\/test\/java\/users\/get\/users-get.feature","scenarioResults":[{"sectionIndex":0,"stepResults":[{"result":{"nanos":88489522,"millis":88.489522,"status":"passed"},"step":{"line":3,"prefix":"Given","index":0,"text":"url \"https:\/\/reqres.in\" + \"\/api\/users\/\" + \"2\""}},{"result":{"nanos":1693060783,"millis":1693.060783,"status":"passed"},"step":{"line":4,"prefix":"When","index":1,"text":"method get"},"stepLog":"17:24:03.195 request:\n1 > GET https:\/\/reqres.in\/api\/users\/2\n1 > Host: reqres.in\n1 > Connection: Keep-Alive\n1 > User-Agent: Apache-HttpClient\/4.5.13 (Java\/1.8.0_372)\n1 > Accept-Encoding: gzip,deflate\n\n\n17:24:04.616 response time in milliseconds: 1417\n1 < 200\n1 < Date: Wed, 14 Feb 2024 22:24:04 GMT\n1 < Content-Type: application\/json; charset=utf-8\n1 < Transfer-Encoding: chunked\n1 < Connection: keep-alive\n1 < Report-To: {\"group\":\"heroku-nel\",\"max_age\":3600,\"endpoints\":[{\"url\":\"https:\/\/nel.heroku.com\/reports?ts=1706392578&sid=c4c9725f-1ab0-44d8-820f-430df2718e11&s=naME72nkIQquhnsKfdv1059uxIsXRnEinhwQBEtZWGM%3D\"}]}\n1 < Reporting-Endpoints: heroku-nel=https:\/\/nel.heroku.com\/reports?ts=1706392578&sid=c4c9725f-1ab0-44d8-820f-430df2718e11&s=naME72nkIQquhnsKfdv1059uxIsXRnEinhwQBEtZWGM%3D\n1 < Nel: {\"report_to\":\"heroku-nel\",\"max_age\":3600,\"success_fraction\":0.005,\"failure_fraction\":0.05,\"response_headers\":[\"Via\"]}\n1 < X-Powered-By: Express\n1 < Access-Control-Allow-Origin: *\n1 < Etag: W\/\"118-pbdwwFo9SKNhD3Lx5iHJyngpq00\"\n1 < Via: 1.1 vegur\n1 < Cache-Control: max-age=14400\n1 < CF-Cache-Status: HIT\n1 < Age: 917\n1 < Vary: Accept-Encoding\n1 < Server: cloudflare\n1 < CF-RAY: 8558b81caa50746e-MIA\n{\"data\":{\"id\":2,\"email\":\"janet.weaver@reqres.in\",\"first_name\":\"Janet\",\"last_name\":\"Weaver\",\"avatar\":\"https:\/\/reqres.in\/img\/faces\/2-image.jpg\"},\"support\":{\"url\":\"https:\/\/reqres.in\/#support-heading\",\"text\":\"To keep ReqRes free, contributions towards server costs are appreciated!\"}}\n\n"},{"result":{"nanos":19132,"millis":0.019132,"status":"passed"},"step":{"line":5,"prefix":"Then","index":2,"text":"status 200"}}],"executorName":"main","line":2,"name":"Get a users","description":"","durationMillis":1781.569437,"startTime":1707949442861,"failed":false,"refId":"[1:2]","endTime":1707949444658,"exampleIndex":-1},{"sectionIndex":1,"stepResults":[{"result":{"nanos":718835,"millis":0.718835,"status":"passed"},"step":{"line":9,"prefix":"Given","index":0,"text":"url \"https:\/\/reqres.in\" + \"api\/users?page=2\""}},{"result":{"nanos":102329989,"errorMessage":"http call failed after 102 milliseconds for url: https:\/\/reqres.inapi\/users?page=2\nsrc\/test\/java\/users\/get\/users-get.feature:10","millis":102.329989,"status":"failed"},"step":{"line":10,"prefix":"When","index":1,"text":"method get"},"stepLog":"17:24:04.669 request:\n1 > GET https:\/\/reqres.inapi\/users?page=2\n1 > Host: reqres.inapi\n1 > Connection: Keep-Alive\n1 > User-Agent: Apache-HttpClient\/4.5.13 (Java\/1.8.0_372)\n1 > Accept-Encoding: gzip,deflate\n\n\n17:24:04.770 java.net.UnknownHostException: reqres.inapi: nodename nor servname provided, or not known, http call failed after 102 milliseconds for url: https:\/\/reqres.inapi\/users?page=2\n17:24:04.770 src\/test\/java\/users\/get\/users-get.feature:10\nWhen method get\nhttp call failed after 102 milliseconds for url: https:\/\/reqres.inapi\/users?page=2\nsrc\/test\/java\/users\/get\/users-get.feature:10\n"},{"result":{"nanos":0,"millis":0.0,"status":"skipped"},"step":{"line":11,"prefix":"Then","index":2,"text":"status 200"}},{"result":{"nanos":0,"millis":0.0,"status":"skipped"},"step":{"line":12,"prefix":"And","index":3,"text":"match $ == {\"page\":2,\"per_page\":6,\"total\":12,\"total_pages\":2,\"data\":[{\"id\":7,\"email\":\"michael.lawson@reqres.in\",\"first_name\":\"Michael\",\"last_name\":\"Lawson\",\"avatar\":\"https:\/\/reqres.in\/img\/faces\/7-image.jpg\"},{\"id\":8,\"email\":\"lindsay.ferguson@reqres.in\",\"first_name\":\"Lindsay\",\"last_name\":\"Ferguson\",\"avatar\":\"https:\/\/reqres.in\/img\/faces\/8-image.jpg\"},{\"id\":9,\"email\":\"tobias.funke@reqres.in\",\"first_name\":\"Tobias\",\"last_name\":\"Funke\",\"avatar\":\"https:\/\/reqres.in\/img\/faces\/9-image.jpg\"},{\"id\":10,\"email\":\"byron.fields@reqres.in\",\"first_name\":\"Byron\",\"last_name\":\"Fields\",\"avatar\":\"https:\/\/reqres.in\/img\/faces\/10-image.jpg\"},{\"id\":11,\"email\":\"george.edwards@reqres.in\",\"first_name\":\"George\",\"last_name\":\"Edwards\",\"avatar\":\"https:\/\/reqres.in\/img\/faces\/11-image.jpg\"},{\"id\":12,\"email\":\"rachel.howell@reqres.in\",\"first_name\":\"Rachel\",\"last_name\":\"Howell\",\"avatar\":\"https:\/\/reqres.in\/img\/faces\/12-image.jpg\"}],\"support\":{\"url\":\"https:\/\/reqres.in\/#support-heading\",\"text\":\"To keep ReqRes free, contributions towards server costs are appreciated!\"}}"}}],"line":8,"description":"","durationMillis":103.048824,"failed":true,"error":"http call failed after 102 milliseconds for url: https:\/\/reqres.inapi\/users?page=2\nsrc\/test\/java\/users\/get\/users-get.feature:10","executorName":"main","name":"Get a users","startTime":1707949444667,"refId":"[2:8]","endTime":1707949444770,"exampleIndex":-1}],"callDepth":0,"name":"Get users on regres","description":"","resultDate":"2024-02-14 05:24:04 PM","durationMillis":1884.618261,"passedCount":1}